<?xml version="1.0" encoding="UTF-8"?>
<svg width="314" height="314" version="1.1" viewBox="0 0 83.079 83.079" xmlns="http://www.w3.org/2000/svg" xmlns:cc="http://creativecommons.org/ns#" xmlns:dc="http://purl.org/dc/elements/1.1/" xmlns:rdf="http://www.w3.org/1999/02/22-rdf-syntax-ns#">
 <metadata>
  <rdf:RDF>
   <cc:Work rdf:about="">
    <dc:format>image/svg+xml</dc:format>
    <dc:type rdf:resource="http://purl.org/dc/dcmitype/StillImage"/>
    <dc:title/>
   </cc:Work>
  </rdf:RDF>
 </metadata>
 <g transform="translate(-15.674,-37.358)" stroke="#0a649c" stroke-width="16" style="shape-inside:url(#rect1919);white-space:pre" aria-label="ア">
  <path transform="matrix(.26458 0 0 .26458 15.674 37.358)" d="m37.145-0.0019531c-9.2194 0-21.144 4.5308-28.205 12.889-7.061 8.3579-8.9395 17.881-8.9395 25.416 0 7.1478 1.6033 16.846 9.0059 25.482s19.535 12.623 28.139 12.623h26.51c-0.36136 23.018-2.6212 33.701-6.6895 42.437v8e-3l-0.0078 8e-3c-3.6789 7.9097-11.831 15.175-23.318 19.045l-0.16992 0.0527-0.16992 0.0586c-12.188 4.2657-25.814 21.044-25.814 35.455 0 4.5116 0.71827 9.9299 3.2109 15.746l0.08203 0.18359 0.08008 0.18555c4.7432 10.672 21.39 22.949 34.541 22.949 3.9764 0 9.4598-0.75927 14.939-2.9141 26.905-9.2649 51.912-28.28 66.092-56.879 2.3254-4.6586 4.3081-9.637 6.0898-14.859 5.3057-0.44808 9.463-1.6558 11.818-2.5391l0.14063-0.0527 0.13281-0.0508c28.064-10.837 52.747-32.291 66.754-61.949l0.0957-0.19922 0.0898-0.19922c3.4911-7.6805 5.5938-15.659 5.5938-24.611 0-9.7215-2.9034-20.156-9.1152-28.627l-0.28125-0.38477-0.29493-0.375c-8.233-10.52-25.537-18.899-40.896-18.899zm102.42 120.09c-0.057 0.0276-0.0992 0.11398-0.15625 0.14062l-0.80469 0.36133c0.33003-0.14253 0.63194-0.35654 0.96094-0.50195z" color="#000000" color-rendering="auto" dominant-baseline="auto" fill="#0a649c" image-rendering="auto" shape-rendering="auto" solid-color="#000000" stop-color="#000000" stroke="none" style="font-feature-settings:normal;font-variant-alternates:normal;font-variant-caps:normal;font-variant-east-asian:normal;font-variant-ligatures:normal;font-variant-numeric:normal;font-variant-position:normal;font-variation-settings:normal;inline-size:0;isolation:auto;mix-blend-mode:normal;shape-margin:0;shape-padding:0;text-decoration-color:#000000;text-decoration-line:none;text-decoration-style:solid;text-indent:0;text-orientation:mixed;text-transform:none;white-space:normal"/>
 </g>
 <g transform="translate(10.46,-11.274)" stroke="#0a649c" stroke-width="16" style="shape-inside:url(#rect2762);white-space:pre" aria-label="あ">
  <path d="m38.455 33.498c-3.6357 0-7.7294 3.1741-9.207 6.8574h-2.375c-2.377 0-5.2407 1.0209-7.1328 3.0312-1.8921 2.0104-2.6445 4.6127-2.6445 6.7969 0 1.9429 0.59017 4.7341 2.6504 6.918 1.0191 1.0802 2.2365 1.817 3.4531 2.2988-4.4638 4.3966-7.4238 10.159-7.4238 16.844 0 4.0674 1.2846 8.1652 4.0664 11.205 2.7818 3.0399 6.9119 4.6699 10.842 4.6699 2.5039 0 5.2877-0.65096 8.0723-1.8398 1.9125 2.3244 4.6491 4.0742 7.5742 4.0742h0.25l0.15039-0.0039c6.9547-0.25878 13.268-2.4368 18.045-6.4609 4.7773-4.0241 7.8438-10.104 7.8438-16.572 0-5.0553-1.7378-10.222-5.2773-14.041-0.55242-0.59609-1.1973-1.0868-1.8164-1.6074 0.12695-0.11835 0.27962-0.15525 0.40234-0.2832 1.8409-1.9192 2.6777-4.6674 2.6777-6.7754v-0.92383l-0.08203-0.5625c-0.27482-1.9237-1.1943-4.252-3.0977-6s-4.5424-2.5449-6.6504-2.5449h-0.96484l-0.60156 0.0918c-2.9177 0.44686-6.1085 0.76242-9.4316 1.0156-0.44569-1.2056-1.1369-2.4238-2.1562-3.4199-2.0732-2.0261-4.5185-2.5963-6.2461-2.7402l-0.33203-0.02734z" color="#000000" color-rendering="auto" dominant-baseline="auto" fill="#0a649c" image-rendering="auto" shape-rendering="auto" solid-color="#000000" stop-color="#000000" stroke="none" style="font-feature-settings:normal;font-variant-alternates:normal;font-variant-caps:normal;font-variant-east-asian:normal;font-variant-ligatures:normal;font-variant-numeric:normal;font-variant-position:normal;font-variation-settings:normal;inline-size:0;isolation:auto;mix-blend-mode:normal;shape-margin:0;shape-padding:0;text-decoration-color:#000000;text-decoration-line:none;text-decoration-style:solid;text-indent:0;text-orientation:mixed;text-transform:none;white-space:normal"/>
 </g>
 <g transform="translate(-15.674,-37.358)" fill="#142839" stroke="#fafafa" stroke-width="0" style="shape-inside:url(#rect2756);white-space:pre" aria-label="ア">
  <path d="m25.502 43.357c-1.048 0-2.1804 0.45219-2.8809 1.2812-0.70041 0.82906-0.94727 1.8598-0.94727 2.8535 0 0.96809 0.21926 1.9999 0.9375 2.8379s1.8644 1.2441 2.8906 1.2441h32.674c-2.1359 3.6339-5.8997 6.8265-9.793 8.5078l-0.02734 0.01172-0.02734 0.01367c-0.54547 0.25455-0.97026 0.71231-1.3672 1.1816 0.10358-1.5744 0.19056-3.1891 0.20117-5.0469v-0.0118c0-1.1055-0.41853-2.2772-1.2656-3.041-0.43367-0.39101-0.9319-0.65022-1.4531-0.81445-0.58305-0.24734-1.0782-0.22852-1.5176-0.22852-1.0315 0-2.13 0.27048-3.002 1.0352-0.872 0.76468-1.334 1.9751-1.334 3.1484 0 7.7278-0.8172 11.598-2.4043 15.006v2e-3c-1.7674 3.7998-5.3181 6.7182-9.6973 8.1934l-0.0098 0.0039-0.01172 0.0039c-1.5682 0.54886-2.8125 2.154-2.8125 3.7168 0 0.52702 0.08606 1.1513 0.36523 1.8027l0.0039 0.01172 0.0059 0.01367c0.61854 1.3917 2.1768 2.5078 3.6562 2.5078 0.53512 0 1.1798-0.0914 1.8184-0.35742 5.9165-1.9863 11.217-6.0184 14.246-12.127 1.2612-2.5225 2.1399-5.4871 2.7051-9.1816l-0.0059-0.01172c0.0014 0.0026 0.0045 0.0033 0.0059 0.0059 7.63e-4 -5e-3 0.0012-0.01063 2e-3 -0.01563 0.0046 0.0082 0.0032 0.01717 0.0078 0.02539 0.72785 1.3306 2.1966 2.002 3.4727 2.002 0.73655 0 1.3265-0.19639 1.8184-0.38086l0.0196-0.0078c5.7043-2.2027 11.527-7.2792 14.396-13.355l0.0078-0.01172 0.0059-0.01367c0.61192-1.3462 0.94141-2.7132 0.94141-4.0293 0-1.4812-0.42197-2.8956-1.252-4.0273l-0.01758-0.02539-0.01953-0.02344c-1.2304-1.5722-3.3653-2.6973-6.0957-2.6973z" color="#000000" color-rendering="auto" dominant-baseline="auto" fill="#142839" image-rendering="auto" shape-rendering="auto" solid-color="#000000" stop-color="#000000" stroke="none" style="font-feature-settings:normal;font-variant-alternates:normal;font-variant-caps:normal;font-variant-east-asian:normal;font-variant-ligatures:normal;font-variant-numeric:normal;font-variant-position:normal;font-variation-settings:normal;inline-size:0;isolation:auto;mix-blend-mode:normal;shape-margin:0;shape-padding:0;text-decoration-color:#000000;text-decoration-line:none;text-decoration-style:solid;text-indent:0;text-orientation:mixed;text-transform:none;white-space:normal"/>
 </g>
 <g transform="translate(10.725,-11.274)" fill="#fafafa" stroke="#fafafa" stroke-width="4" style="shape-inside:url(#rect2768);white-space:pre" aria-label="あ">
  <path d="m38.455 39.498c-1.9055 0-3.7246 1.5789-3.918 3.416l-2e-3 0.0078v0.0078c-0.10099 1.0435-0.14414 2.2325-0.20117 3.3887-1.6181 0.01904-3.238 0.03711-4.8184 0.03711h-2.6426c-1.0133 0-2.062 0.3971-2.7637 1.1426-0.70163 0.74548-1.0137 1.7394-1.0137 2.6855 0 0.94293 0.26245 2.0024 1.0156 2.8008s1.8311 1.141 2.8379 1.1797l0.03906 2e-3h0.03711c2.3272 0 4.6705-0.04289 6.957-0.08008-0.02983 1.334-0.06641 2.6607-0.06641 4.0234 0 0.34932 0.02023 0.71351 0.02539 1.0664-6.9997 3.5392-12.166 9.7524-12.166 17.068 0 2.8838 0.87281 5.3847 2.4922 7.1543 1.6194 1.7696 3.9476 2.7207 6.416 2.7207 2.5631 0 5.3597-0.78228 8.3555-2.7051 0.68242 0.7877 1.6348 1.3848 2.668 1.3848 0.26106 0 0.40959-0.10377 0.62891-0.14453 0.16811 1.913 1.8816 3.6992 3.9941 3.6992h0.17578c5.8344-0.2171 10.824-2.0389 14.404-5.0547s5.709-7.2791 5.709-11.982c0-3.8165-1.226-7.3173-3.6777-9.9629-2.0389-2.2001-5.0217-3.6011-8.4902-4.4629 0.01415-0.07834 0.03574-0.15194 0.04883-0.23047l0.02734-0.16406v-0.4707c0-0.90239-0.37086-1.8547-1.0332-2.502-0.35573-0.34765-0.84356-0.39491-1.2852-0.57031 2.2362-0.20153 4.8318-0.25608 6.8828-0.5332h2e-3c0.90481-0.11939 1.8218-0.4764 2.5039-1.1875 0.68405-0.71316 1.0078-1.715 1.0078-2.623v-0.49805l-0.02148-0.14062c-0.12585-0.881-0.50759-1.7764-1.2168-2.4278-0.7092-0.65131-1.6838-0.96484-2.5918-0.96484h-0.50781l-0.15039 0.02148c-4.8683 0.7456-10.256 1.1548-15.873 1.4219 0.05793-0.81441 0.10527-1.7012 0.18164-2.4395l0.01172-0.10156v-0.35742c0-0.83348-0.28192-1.8551-1.0098-2.5664-0.72785-0.7113-1.6636-0.97864-2.5527-1.0527l-0.08203-0.0059zm12.646 12.963 0.43359 0.09375c-0.1709-0.05697-0.19508-0.02593-0.33398-0.04883-0.03601-0.0044-0.0636-0.04132-0.09961-0.04492zm-3.0195 0.8125c-0.62415 0.52764-1.0856 1.267-1.2285 2.0293l-0.0078 0.03906c-0.02958 0.17749-0.09668 0.46234-0.13672 0.67188-1.9 0.08234-3.5649 0.2543-5.0137 0.52148 0.0084-0.92639 0.02655-1.8506 0.04883-2.7715 2.2731-0.09774 4.1878-0.3419 6.3379-0.49023zm-3.4277 10.139c-0.68388 1.8569-1.4189 3.573-2.3281 5.166-0.22153-1.4854-0.33851-3.0787-0.42578-4.7051 0.73873-0.19695 1.6211-0.3244 2.7539-0.46094zm7.9102 0.61524c1.7138 0.45727 3.1165 1.1242 4.0059 2.0801 1.1618 1.2486 1.7813 2.8811 1.7812 5.0078 1e-6 2.5059-0.99237 4.5855-3.0176 6.252-2.0252 1.6665-5.1637 2.8662-9.3574 3.0781-0.07123 0.0036-0.1413 0.03966-0.21289 0.04688-0.05175-0.58219-0.16115-1.1348-0.38672-1.5859l0.02344 0.04883c-0.14279-0.30598-0.24753-0.57922-0.36719-0.86523 3.1121-3.6051 5.8212-8.6505 7.5312-14.062zm-18.016 3.5098c0.32388 3.0054 0.82308 5.8414 1.5449 8.3906-2.0403 1.5406-3.8392 2.2285-4.9004 2.2285-0.60238 0-0.86132-0.13806-1.0801-0.37891s-0.47656-0.74162-0.47656-1.7871c0-2.6469 1.6523-5.866 4.9121-8.4531z" color="#000000" color-rendering="auto" dominant-baseline="auto" fill="#142839" image-rendering="auto" shape-rendering="auto" solid-color="#000000" stop-color="#000000" stroke="none" style="font-feature-settings:normal;font-variant-alternates:normal;font-variant-caps:normal;font-variant-east-asian:normal;font-variant-ligatures:normal;font-variant-numeric:normal;font-variant-position:normal;font-variation-settings:normal;inline-size:0;isolation:auto;mix-blend-mode:normal;shape-margin:0;shape-padding:0;text-decoration-color:#000000;text-decoration-line:none;text-decoration-style:solid;text-indent:0;text-orientation:mixed;text-transform:none;white-space:normal"/>
 </g>
</svg>
